<svg id="Группа_2" data-name="Группа 2" xmlns="http://www.w3.org/2000/svg" width="203.52" height="393.76" viewBox="0 0 25.44 49.22">
  <defs>
    <style>
      .cls-1 {
        fill-rule: evenodd;
      }
    </style>
  </defs>
  <path id="Shape_1_copy_5" data-name="Shape 1 copy 5" class="cls-1" d="M1025.89,2035.23l-2.12-2.12,23.34-23.34,2.12,2.12Z" transform="translate(-1023.78 -1986)"/>
  <path id="Shape_1_copy_5-2" data-name="Shape 1 copy 5" class="cls-1" d="M1026.08,1985.99l-2.09,2.09,22.93,22.93,2.09-2.09Z" transform="translate(-1023.78 -1986)"/>
</svg>
